%YAML 1.1
%TAG !u! tag:unity3d.com,2011:
--- !u!114 &11400000
MonoBehaviour:
  m_ObjectHideFlags: 0
  m_CorrespondingSourceObject: {fileID: 0}
  m_PrefabInstance: {fileID: 0}
  m_PrefabAsset: {fileID: 0}
  m_GameObject: {fileID: 0}
  m_Enabled: 1
  m_EditorHideFlags: 0
  m_Script: {fileID: 11500000, guid: 90491273d7f6cee4582d19a74c881957, type: 3}
  m_Name: AudioQeue_monsters
  m_EditorClassIdentifier: 
  id: 3
  channels: 6
  sound3D: 1
  clips:
  - clip: {fileID: 8300000, guid: 21ab65dbab682b2409183243f58bfea0, type: 3}
    minPitch: 1
    maxPitch: 1
    minVolume: 0.724
    maxVolume: 1
    id: 0
  - clip: {fileID: 8300000, guid: f83409851d8d9be48becfb3ae94d91cc, type: 3}
    minPitch: 1
    maxPitch: 1
    minVolume: 0.724
    maxVolume: 1
    id: 0
  - clip: {fileID: 8300000, guid: 7a729a16f90e9bf4593532cf99a7562e, type: 3}
    minPitch: 1
    maxPitch: 1
    minVolume: 0.724
    maxVolume: 1
    id: 0
  - clip: {fileID: 8300000, guid: 898e7b51dd9591b458f4e2db5babe837, type: 3}
    minPitch: 1
    maxPitch: 1
    minVolume: 0.724
    maxVolume: 1
    id: 0
  - clip: {fileID: 8300000, guid: 9179e162d6e4bff46979ed4167695eb7, type: 3}
    minPitch: 1
    maxPitch: 1
    minVolume: 0.724
    maxVolume: 1
    id: 0
  - clip: {fileID: 8300000, guid: 1b2ea0f0afdd82e46a27c79fa28db727, type: 3}
    minPitch: 1
    maxPitch: 1
    minVolume: 0.724
    maxVolume: 1
    id: 0
  - clip: {fileID: 8300000, guid: e95cf6bdffa80e94ebe535199c558fd6, type: 3}
    minPitch: 1
    maxPitch: 1
    minVolume: 0.724
    maxVolume: 1
    id: 0
