%YAML 1.1
%TAG !u! tag:unity3d.com,2011:
--- !u!21 &2100000
Material:
  serializedVersion: 8
  m_ObjectHideFlags: 0
  m_CorrespondingSourceObject: {fileID: 0}
  m_PrefabInstance: {fileID: 0}
  m_PrefabAsset: {fileID: 0}
  m_Name: Unlit_BakedTexture
  m_Shader: {fileID: 4800000, guid: e026274bb0fb2854b8fb3449b136555d, type: 3}
  m_ValidKeywords: []
  m_InvalidKeywords: []
  m_LightmapFlags: 4
  m_EnableInstancingVariants: 0
  m_DoubleSidedGI: 0
  m_CustomRenderQueue: -1
  stringTagMap: {}
  disabledShaderPasses: []
  m_SavedProperties:
    serializedVersion: 3
    m_TexEnvs:
    - _BaseMap:
        m_Texture: {fileID: 11700000, guid: 1cb18db0c37cf1b4da9a33bca0fd175c, type: 2}
        m_Scale: {x: 1, y: 1}
        m_Offset: {x: 0, y: 0}
    m_Ints: []
    m_Floats:
    - _Scale: 0.76
    - _TextureSize: 16
    m_Colors:
    - _Color: {r: 1, g: 1, b: 1, a: 1}
    - _TextureSize: {r: 64, g: 64, b: 64, a: 0}
  m_BuildTextureStacks: []
